{
  "name": "koamenu",
  "title": "Koamenu",
  "description": "Slidable menu",
  "version": "0.1.0",
  "homepage": "",
  "author": {
    "name": "Kristijan Husak & Aleksandar Gosevski",
    "email": "husakkristijan@gmail.com"
  },
  "repository": {
    "type": "git",
    "url": "https://salencebg@bitbucket.org/keeponapps/koamenu.git"
  },
  "bugs": {
    "url": ""
  },
  "licenses": [
    {
      "type": "MIT",
      "url": "/blob/master/LICENSE-MIT"
    },
    {
      "type": "GPL",
      "url": "/blob/master/LICENSE-GPL"
    }
  ],
  "dependencies": {
    "jquery": ">= 1.6"
  },
  "keywords": []
}